%YAML 1.1
%TAG !u! tag:unity3d.com,2011:
--- !u!74 &7400000
AnimationClip:
  m_ObjectHideFlags: 0
  m_CorrespondingSourceObject: {fileID: 0}
  m_PrefabInstance: {fileID: 0}
  m_PrefabAsset: {fileID: 0}
  m_Name: Death
  serializedVersion: 6
  m_Legacy: 0
  m_Compressed: 0
  m_UseHighQualityCurve: 1
  m_RotationCurves: []
  m_CompressedRotationCurves: []
  m_EulerCurves: []
  m_PositionCurves: []
  m_ScaleCurves: []
  m_FloatCurves: []
  m_PPtrCurves:
  - curve:
    - time: 0
      value: {fileID: -9192638271177797499, guid: 0531be73f3004474f9478e1211b3d8bf,
        type: 3}
    - time: 0.05
      value: {fileID: 8559509556701815258, guid: 0531be73f3004474f9478e1211b3d8bf,
        type: 3}
    - time: 0.083333336
      value: {fileID: -5286180679089938723, guid: 0531be73f3004474f9478e1211b3d8bf,
        type: 3}
    - time: 0.13333334
      value: {fileID: -1891855120789479077, guid: 0531be73f3004474f9478e1211b3d8bf,
        type: 3}
    - time: 0.18333334
      value: {fileID: -5582970244224541034, guid: 0531be73f3004474f9478e1211b3d8bf,
        type: 3}
    - time: 0.23333333
      value: {fileID: 830680230883465780, guid: 0531be73f3004474f9478e1211b3d8bf,
        type: 3}
    - time: 0.26666668
      value: {fileID: 6596258498841548387, guid: 0531be73f3004474f9478e1211b3d8bf,
        type: 3}
    - time: 0.31666666
      value: {fileID: -4147321062969920389, guid: 0531be73f3004474f9478e1211b3d8bf,
        type: 3}
    - time: 0.35
      value: {fileID: 2602597460433512539, guid: 0531be73f3004474f9478e1211b3d8bf,
        type: 3}
    - time: 0.4
      value: {fileID: -2134515381725696932, guid: 0531be73f3004474f9478e1211b3d8bf,
        type: 3}
    - time: 0.43333334
      value: {fileID: 0}
    attribute: m_Sprite
    path: 
    classID: 212
    script: {fileID: 0}
  m_SampleRate: 60
  m_WrapMode: 0
  m_Bounds:
    m_Center: {x: 0, y: 0, z: 0}
    m_Extent: {x: 0, y: 0, z: 0}
  m_ClipBindingConstant:
    genericBindings:
    - serializedVersion: 2
      path: 0
      attribute: 0
      script: {fileID: 0}
      typeID: 212
      customType: 23
      isPPtrCurve: 1
    pptrCurveMapping:
    - {fileID: -9192638271177797499, guid: 0531be73f3004474f9478e1211b3d8bf, type: 3}
    - {fileID: 8559509556701815258, guid: 0531be73f3004474f9478e1211b3d8bf, type: 3}
    - {fileID: -5286180679089938723, guid: 0531be73f3004474f9478e1211b3d8bf, type: 3}
    - {fileID: -1891855120789479077, guid: 0531be73f3004474f9478e1211b3d8bf, type: 3}
    - {fileID: -5582970244224541034, guid: 0531be73f3004474f9478e1211b3d8bf, type: 3}
    - {fileID: 830680230883465780, guid: 0531be73f3004474f9478e1211b3d8bf, type: 3}
    - {fileID: 6596258498841548387, guid: 0531be73f3004474f9478e1211b3d8bf, type: 3}
    - {fileID: -4147321062969920389, guid: 0531be73f3004474f9478e1211b3d8bf, type: 3}
    - {fileID: 2602597460433512539, guid: 0531be73f3004474f9478e1211b3d8bf, type: 3}
    - {fileID: -2134515381725696932, guid: 0531be73f3004474f9478e1211b3d8bf, type: 3}
    - {fileID: 0}
  m_AnimationClipSettings:
    serializedVersion: 2
    m_AdditiveReferencePoseClip: {fileID: 0}
    m_AdditiveReferencePoseTime: 0
    m_StartTime: 0
    m_StopTime: 0.45000002
    m_OrientationOffsetY: 0
    m_Level: 0
    m_CycleOffset: 0
    m_HasAdditiveReferencePose: 0
    m_LoopTime: 0
    m_LoopBlend: 0
    m_LoopBlendOrientation: 0
    m_LoopBlendPositionY: 0
    m_LoopBlendPositionXZ: 0
    m_KeepOriginalOrientation: 0
    m_KeepOriginalPositionY: 1
    m_KeepOriginalPositionXZ: 0
    m_HeightFromFeet: 0
    m_Mirror: 0
  m_EditorCurves: []
  m_EulerEditorCurves: []
  m_HasGenericRootTransform: 0
  m_HasMotionFloatCurves: 0
  m_Events: []
